…
## Warning: Chain 4 finished unexpectedly!

## Chain 3 finished in 1.6 seconds.
## Chain 4 finished in 1.5 seconds.
## 
## All 4 chains finished successfully.
## Mean chain execution time: 1.5 seconds.
## Total execution time: 2.4 seconds.

fit_nc$summary()

## # A tibble: 43 x 10
##    variable       mean   median    sd   mad       q5       q95  rhat ess_bulk
##    <chr>         <dbl>    <dbl> <dbl> <dbl>    <dbl>     <dbl> <dbl>    <dbl>
##  1 lp__       3018.    3019.    4.43  4.33  3011.    3025.      1.01     744.
##  2 intercept     3.10     3.10  0.187 0.177    2.79     3.41    1.01     530.
##  3 group_z[1]   -1.89    -1.87  0.484 0.479   -2.73    -1.12    1.00    1235.
##  4 group_z[2]   -0.575   -0.567 0.327 0.338   -1.12    -0.0575  1.00     958.
##  5 group_z[3]   -0.383   -0.372 0.321 0.314   -0.922    0.122   1.00     920.
##  6 group_z[4]   -0.570   -0.555 0.331 0.327   -1.13    -0.0425  1.01    1003.
##  7 group_z[5]   -0.615   -0.604 0.335 0.325   -1.19    -0.0921  1.01     978.
##  8 group_z[6]    0.609    0.604 0.283 0.277    0.144    1.09    1.01     663.
##  9 group_z[7]   -0.758   -0.741 0.359 0.351   -1.35    -0.186   1.00    1076.
## 10 group_z[8]    1.47     1.46  0.342 0.353    0.917    2.02    1.01     575.
## # ... with 33 more rows, and 1 more variable: ess_tail <dbl>
…
## Running MCMC with 4 chains, at most 12 in parallel...
## 
## Chain 1 finished in 0.9 seconds.
## Chain 3 finished in 0.9 seconds.
## Chain 2 finished in 1.0 seconds.
## Chain 4 finished in 1.1 seconds.
## 
## All 4 chains finished successfully.
## Mean chain execution time: 1.0 seconds.
## Total execution time: 2.0 seconds.

fit_c$summary()

## # A tibble: 23 x 10
##    variable       mean   median    sd   mad       q5       q95  rhat ess_bulk
##    <chr>         <dbl>    <dbl> <dbl> <dbl>    <dbl>     <dbl> <dbl>    <dbl>
##  1 lp__       3023.    3024.    3.33  3.19  3017.    3028.      1.00    1639.
##  2 intercept     3.07     3.07  0.187 0.173    2.74     3.38    1.01     265.
##  3 group_r[1]   -1.46    -1.46  0.335 0.329   -2.04    -0.933   1.00     851.
##  4 group_r[2]   -0.425   -0.420 0.253 0.252   -0.842   -0.0212  1.00     494.
##  5 group_r[3]   -0.266   -0.261 0.242 0.240   -0.684    0.124   1.01     506.
##  6 group_r[4]   -0.422   -0.422 0.252 0.248   -0.842   -0.0100  1.00     472.
##  7 group_r[5]   -0.455   -0.457 0.261 0.257   -0.895   -0.0258  1.00     495.
##  8 group_r[6]    0.508    0.507 0.219 0.210    0.139    0.881   1.01     340.
##  9 group_r[7]   -0.564   -0.562 0.260 0.263   -0.997   -0.150   1.00     546.
## 10 group_r[8]    1.17     1.17  0.203 0.194    0.845    1.52    1.01     309.
## # ... with 13 more rows, and 1 more variable: ess_tail <dbl>
…
## Chain 4

## Chain 1 finished in 0.7 seconds.
## Chain 2 finished in 0.7 seconds.
## Chain 3 finished in 0.7 seconds.
## Chain 4 finished in 0.7 seconds.
## 
## All 4 chains finished successfully.
## Mean chain execution time: 0.7 seconds.
## Total execution time: 1.4 seconds.

fit_c_sz$summary()

## # A tibble: 42 x 10
##    variable         mean   median     sd    mad       q5      q95  rhat ess_bulk
##    <chr>           <dbl>    <dbl>  <dbl>  <dbl>    <dbl>    <dbl> <dbl>    <dbl>
##  1 lp__         3024.    3024.    3.24   3.23   3018.     3.03e+3  1.00    1895.
##  2 intercept       3.09     3.09  0.0386 0.0391    3.02   3.15e+0  1.00    3984.
##  3 group_r_raw~    1.48     1.46  0.287  0.282     1.03   1.97e+0  1.00    5842.
##  4 group_r_raw~    0.518    0.514 0.181  0.177     0.225  8.23e-1  1.00    7124.
##  5 group_r_raw~    0.392    0.387 0.160  0.160     0.136  6.60e-1  1.00    6656.
##  6 group_r_raw~    0.568    0.566 0.179  0.172     0.278  8.68e-1  1.00    7488.
##  7 group_r_raw~    0.645    0.644 0.178  0.179     0.367  9.44e-1  1.00    6985.
##  8 group_r_raw~   -0.283   -0.286 0.119  0.118    -0.475 -8.66e-2  1.00    5840.
##  9 group_r_raw~    0.775    0.768 0.188  0.186     0.479  1.10e+0  1.00    7328.
## 10 group_r_raw~   -0.923   -0.924 0.0874 0.0858   -1.07  -7.79e-1  1.00    5389.
## # ... with 32 more rows, and 1 more variable: ess_tail <dbl>
…
fit_nc_sz$summary()

## # A tibble: 42 x 10
##    variable         mean   median     sd    mad       q5      q95  rhat ess_bulk
##    <chr>           <dbl>    <dbl>  <dbl>  <dbl>    <dbl>    <dbl> <dbl>    <dbl>
##  1 lp__         3019.    3019.    4.39   4.37   3011.    3025.     1.01     694.
##  2 intercept       3.09     3.09  0.0387 0.0387    3.02     3.15   1.00    3524.
##  3 group_r_raw~    1.94     1.91  0.437  0.432     1.27     2.72   1.00    1472.
##  4 group_r_raw~    0.684    0.663 0.262  0.249     0.283    1.15   1.00    2059.
##  5 group_r_raw~    0.528    0.508 0.243  0.235     0.154    0.944  1.00    2863.
##  6 group_r_raw~    0.757    0.734 0.271  0.265     0.358    1.24   1.00    2167.
##  7 group_r_raw~    0.849    0.829 0.266  0.258     0.444    1.32   1.00    1606.
##  8 group_r_raw~   -0.380   -0.371 0.161  0.157    -0.660   -0.128  1.00    2304.
##  9 group_r_raw~    1.03     1.00  0.300  0.299     0.588    1.57   1.00    1670.
## 10 group_r_raw~   -1.22    -1.21  0.230  0.228    -1.63    -0.873  1.00     675.
## # ... with 32 more rows, and 1 more variable: ess_tail <dbl>
…
## Chain 1 finished in 3.0 seconds.

## Warning: Chain 4 finished unexpectedly!

## Chain 2 finished in 3.1 seconds.
## Chain 3 finished in 3.1 seconds.
## Chain 4 finished in 3.0 seconds.
## 
## All 4 chains finished successfully.
## Mean chain execution time: 3.1 seconds.
## Total execution time: 3.6 seconds.

fit_suff_c$summary()

## # A tibble: 66 x 10
##    variable         mean   median     sd    mad       q5      q95  rhat ess_bulk
##    <chr>           <dbl>    <dbl>  <dbl>  <dbl>    <dbl>    <dbl> <dbl>    <dbl>
##  1 lp__         -141.    -141.    3.24   3.11   -147.    -1.36e+2  1.00    1769.
##  2 intercept_s~    3.09     3.09  0.0391 0.0394    3.02   3.15e+0  1.00    3766.
##  3 group_r_raw~    1.48     1.47  0.285  0.284     1.04   1.97e+0  1.00    5739.
##  4 group_r_raw~    0.521    0.515 0.179  0.176     0.238  8.26e-1  1.00    7103.
##  5 group_r_raw~    0.395    0.388 0.165  0.170     0.130  6.70e-1  1.00    6942.
##  6 group_r_raw~    0.572    0.568 0.178  0.175     0.284  8.75e-1  1.00    7288.
##  7 group_r_raw~    0.646    0.642 0.178  0.178     0.371  9.43e-1  1.00    7153.
##  8 group_r_raw~   -0.286   -0.287 0.116  0.117    -0.473 -9.18e-2  1.00    6758.
##  9 group_r_raw~    0.784    0.775 0.195  0.200     0.479  1.12e+0  1.00    7534.
## 10 group_r_raw~   -0.921   -0.921 0.0875 0.0889   -1.06  -7.77e-1  1.00    5578.
## # ... with 56 more rows, and 1 more variable: ess_tail <dbl>
…
## Running MCMC with 4 chains, at most 12 in parallel...
## 
## Chain 4 finished in 3.7 seconds.
## Chain 2 finished in 3.9 seconds.
## Chain 1 finished in 3.9 seconds.
## Chain 3 finished in 4.2 seconds.
## 
## All 4 chains finished successfully.
## Mean chain execution time: 3.9 seconds.
## Total execution time: 4.5 seconds.

fit_suff_nc$summary()

## # A tibble: 86 x 10
##    variable         mean   median     sd    mad       q5      q95  rhat ess_bulk
##    <chr>           <dbl>    <dbl>  <dbl>  <dbl>    <dbl>    <dbl> <dbl>    <dbl>
##  1 lp__         -145.    -145.    4.48   4.47   -153.    -139.     1.02     588.
##  2 intercept_s~    3.09     3.09  0.0388 0.0385    3.02     3.15   1.00    3582.
##  3 group_r_raw~    1.89     1.87  0.422  0.426     1.24     2.61   1.01    1318.
##  4 group_r_raw~    0.666    0.643 0.255  0.249     0.285    1.11   1.00    1968.
##  5 group_r_raw~    0.502    0.482 0.235  0.224     0.154    0.917  1.00    2550.
##  6 group_r_raw~    0.736    0.714 0.261  0.251     0.349    1.21   1.00    1852.
##  7 group_r_raw~    0.828    0.802 0.270  0.269     0.428    1.29   1.00    1554.
##  8 group_r_raw~   -0.365   -0.358 0.163  0.160    -0.638   -0.112  1.00    2135.
##  9 group_r_raw~    0.993    0.968 0.291  0.282     0.563    1.51   1.01    1463.
## 10 group_r_raw~   -1.19    -1.18  0.227  0.232    -1.58    -0.828  1.02     589.
## # ... with 76 more rows, and 1 more variable: ess_tail <dbl>
…
